dumpfile.vcd
$date
	Sun May 17 09:24:47 2015
$end
$version
	VeritakWin
$end
$timescale
	100ps
$end
$scope module mb_bench $end
$var wire 1 ! scl $end
$var wire 1 " sda $end
$var wire 1 # D2_1 $end
$var wire 1 $ D3_1 $end
$var wire 1 % D4_1 $end
$var wire 12 & dout $end
$var wire 1 ' hv_sync_n $end
$var wire 1 ( hv_sclk $end
$var wire 1 ) hv_sdin $end
$var wire 1 * thrh_sync_n $end
$var wire 1 + thrh_sclk $end
$var wire 1 , thrh_sdin $end
$var wire 1 - hi_gain_n $end
$var wire 1 . ad_sclk1 $end
$var wire 1 / bias_sclk $end
$var wire 1 0 bias_sdin $end
$var wire 1 1 dsync_n $end
$var wire 1 2 bias_sync_n $end
$var wire 1 3 ad_sclk $end
$var wire 20 4 hv_enable_n $end
$var wire 1 5 hv_psuen $end
$var wire 1 6 ad_conv_n1 $end
$var reg 32 7 i $end
$var reg 1 8 cs $end
$var reg 20 9 ht $end
$var reg 1 : ale $end
$var reg 8 ; addr $end
$var reg 1 < busy $end
$var reg 1 = clk1 $end
$var reg 1 > clk2 $end
$var reg 1 ? reset_n $end
$var reg 1 @ sw_in $end
$var reg 2 A mod_sel_in $end
$var reg 1 B ad_sdi $end
$var reg 3 C brd_id $end
$var reg 16 D ad_data $end
$scope module taec_top1 $end
$var wire 1 E D2 $end
$var wire 1 F D3 $end
$var wire 1 G CS $end
$var wire 1 H D4 $end
$var wire 20 I HT $end
$var wire 1 J ALE $end
$var wire 1 K THRH_DAC_SYNC_N $end
$var wire 8 L ADDR $end
$var wire 1 M CLK1 $end
$var wire 12 N DOUT $end
$var wire 1 O SWin $end
$var wire 1 P TP12 $end
$var wire 1 Q TP14 $end
$var wire 1 R TP15 $end
$var wire 8 S gate $end
$var wire 8 T hvdc $end
$var wire 1 U scl_pad_i $end
$var wire 1 V scl_pad_o $end
$var wire 8 W stat_word_lsb $end
$var wire 8 X stat_word_msb $end
$var wire 8 Y bdout $end
$var wire 2 Z MOD_SEL_IN $end
$var wire 6 [ saddr $end
$var wire 8 \ thrsh $end
$var wire 1 ] dcm_lock $end
$var wire 1 ^ sp_clk $end
$var wire 1 _ wb_inta_o $end
$var wire 1 ` set_hvdac_w $end
$var wire 1 a scl_padoen_o $end
$var wire 1 b BIAS_DAC_SYNC_N $end
$var wire 1 c HV_DAC_DIN $end
$var wire 12 d adc_data_xq $end
$var wire 2 e byte_cnt $end
$var wire 1 f sync_rst_n $end
$var wire 1 g set_cr_w $end
$var wire 1 h set_sr_w $end
$var wire 1 i set_tx_w $end
$var wire 20 j alarm_out $end
$var wire 1 k AD_CONV_N $end
$var wire 1 l THRH_DAC_SCLK $end
$var wire 1 m BIAS_DAC_DIN $end
$var wire 12 n db_out0 $end
$var wire 12 o db_out1 $end
$var wire 12 p db_out2 $end
$var wire 12 q db_out3 $end
$var wire 12 r db_out4 $end
$var wire 1 s HV_DAC_SYNC_N $end
$var wire 1 t set_pre_hi_w $end
$var wire 1 u set_chen_w $end
$var wire 1 v set_adcmux_w $end
$var wire 1 w adc_valid $end
$var wire 1 x sda_padoen_o $end
$var wire 1 y start_xfer $end
$var wire 1 z sda_pad_i $end
$var wire 1 { sda_pad_o $end
$var wire 1 | chip_sel $end
$var wire 1 } set_gain_w $end
$var wire 1 ~ THRH_DAC_DIN $end
$var wire 1 !" clk_out_100 $end
$var wire 1 "" set_hven_w $end
$var wire 1 #" AD_SCLK $end
$var wire 6 $" MUX_DOUT $end
$var wire 1 %" RESET_N $end
$var wire 1 &" I2C_SCL $end
$var wire 1 '" I2C_SDA $end
$var wire 12 (" db_out $end
$var wire 1 )" HI_GAIN_N $end
$var wire 1 *" wb_ack_o $end
$var wire 8 +" wb_dat_o $end
$var wire 1 ," AD_SDI $end
$var wire 1 -" set_pre_low_w $end
$var wire 1 ." HV_DAC_SCLK $end
$var wire 1 /" BIAS_DAC_SCLK $end
$var wire 3 0" BRD_ID $end
$var wire 1 1" set_adc_w $end
$var wire 1 2" set_ctl_w $end
$var wire 1 3" set_ht1_w $end
$var wire 1 4" set_ht2_w $end
$var wire 1 5" set_ht3_w $end
$var wire 1 6" set_thrshdac_w $end
$var wire 20 7" HV_EN_N $end
$var wire 1 8" set_stat_w $end
$var wire 20 9" hv_en_n_out $end
$var wire 1 :" set_biasdac_w $end
$var wire 1 ;" HVON_N $end
$var reg 12 <" a $end
$var reg 1 =" clk3 $end
$var reg 1 >" clk4 $end
$var reg 1 ?" hvon $end
$var reg 16 @" stat_word $end
$var reg 6 A" adc_mux_contrl $end
$var reg 1 B" wb_we_i $end
$var reg 4 C" htron $end
$var reg 4 D" srvon $end
$var reg 8 E" alarm_stat $end
$var reg 1 F" sp_clk2 $end
$var reg 1 G" mod_sel $end
$var reg 3 H" sel_db $end
$var reg 1 I" hi_gain_nr $end
$var reg 1 J" SWin_sync $end
$var reg 1 K" ale_sync $end
$var reg 1 L" CS_sync $end
$var reg 1 M" start_xfer_dly2 $end
$var reg 1 N" start_xfer_dly $end
$var reg 3 O" wb_adr_i $end
$var reg 1 P" wb_cyc_i $end
$var reg 8 Q" wb_dat_i $end
$var reg 1 R" wb_stb_i $end
$var reg 20 S" HT_sync $end
$scope module hv_enable1 $end
$var wire 1 T" clk $end
$var wire 1 U" din $end
$var wire 5 V" addr $end
$var wire 20 W" trip $end
$var wire 1 X" rst_n $end
$var wire 1 Y" enable_cntl $end
$var reg 20 Z" alarm $end
$var reg 20 [" hv_en_n $end
$upscope $end
$scope module dac_mux1 $end
$var wire 1 \" ale $end
$var wire 1 ]" load $end
$var wire 1 ^" start_dac $end
$var wire 1 _" idac_sdout1 $end
$var wire 1 `" idac_sdout2 $end
$var wire 1 a" idac_sdout3 $end
$var wire 1 b" sp_clk $end
$var wire 1 c" idac_cs_n1 $end
$var wire 1 d" idac_cs_n2 $end
$var wire 1 e" idac_cs_n3 $end
$var wire 1 f" idac_sdout $end
$var wire 8 g" idac_data_xq $end
$var wire 1 h" idac_clk1 $end
$var wire 1 i" idac_clk2 $end
$var wire 1 j" idac_clk3 $end
$var wire 1 k" idac_cs_n $end
$var wire 1 l" start_dac1 $end
$var wire 1 m" start_dac2 $end
$var wire 1 n" start_dac3 $end
$var wire 8 o" dout_w1 $end
$var wire 8 p" dout_w2 $end
$var wire 8 q" dout_w3 $end
$var wire 1 r" idac_clk $end
$var wire 8 s" dout_w $end
$var wire 3 t" addr_sel $end
$var wire 1 u" sp_rst_n $end
$var reg 1 v" start_dac_dly1 $end
$var reg 1 w" start_dac_dly2 $end
$var reg 2 x" select $end
$scope module bias1 $end
$var wire 1 y" ale $end
$var wire 1 z" idac_rising $end
$var wire 1 {" idac_falling $end
$var wire 1 |" cs_xd $end
$var wire 1 }" sp_clk $end
$var wire 1 ~" idac_sdout $end
$var wire 8 !# idac_data_xq $end
$var wire 1 "# idac_cs_n $end
$var wire 4 ## idac_cnt_xd $end
$var wire 2 $# div_cnt_xd $end
$var wire 1 %# idac_clk $end
$var wire 8 &# dout_w $end
$var wire 13 '# idac_dout_xd $end
$var wire 1 (# sp_rst_n $end
$var wire 1 )# idac_data_val_xq $end
$var reg 8 *# dout $end
$var reg 1 +# cs_xq $end
$var reg 1 ,# rd_active $end
$var reg 4 -# idac_cnt_xq $end
$var reg 2 .# div_cnt_xq $end
$var reg 13 /# idac_dout_xq $end
$upscope $end
$upscope $end
$scope module status1 $end
$var wire 20 0# ht $end
$var wire 1 1# clk $end
$var wire 6 2# addr $end
$var wire 1 3# gain $end
$var wire 1 4# hvon $end
$var wire 1 5# swin $end
$var wire 8 6# hvdc_dac $end
$var wire 1 7# rst_n $end
$var wire 8 8# statwd1 $end
$var wire 8 9# statwd2 $end
$var wire 8 :# bias_dac $end
$var wire 1 ;# enable_cntl $end
$var wire 20 <# hven_n $end
$var wire 8 =# thrsh_dac $end
$var reg 8 ># stat_lsb $end
$var reg 8 ?# stat_msb $end
$upscope $end
$scope module rst_gen1 $end
$var wire 1 @# clk $end
$var wire 1 A# reset_n $end
$var wire 1 B# reset $end
$var wire 1 C# sync_rst_n $end
$var wire 1 D# sync_rst $end
$scope module sync_rst1 $end
$var wire 1 E# clk $end
$var wire 1 F# rst_n $end
$var wire 1 G# sync_out $end
$var wire 1 H# async_in $end
$var reg 1 I# data_2q $end
$var reg 1 J# data_q $end
$upscope $end
$upscope $end
$scope module adc3_intf1 $end
$var wire 1 K# cs_xd $end
$var wire 1 L# tx_rst_n $end
$var wire 1 M# tx_clk $end
$var wire 1 N# sol_adc_sdin $end
$var wire 12 O# adc_data_xd $end
$var wire 1 P# adc_data_val_xd $end
$var wire 1 Q# convert_slow $end
$var wire 5 R# div_cnt_xd $end
$var wire 1 S# adc_shift_xz $end
$var wire 1 T# adc_convert $end
$var wire 1 U# adc_cs_n $end
$var wire 1 V# adc_clk_xd $end
$var wire 4 W# adc_cnt_xd $end
$var wire 1 X# adc_falling $end
$var wire 1 Y# adc_clk $end
$var wire 1 Z# bb_adc_sdin $end
$var wire 1 [# fast_xd $end
$var reg 1 \# cs_xq $end
$var reg 3 ]# state $end
$var reg 3 ^# next_state $end
$var reg 12 _# adc_data_xq $end
$var reg 1 `# adc_data_val_xq $end
$var reg 5 a# div_cnt_xq $end
$var reg 1 b# adc_clk_xq $end
$var reg 4 c# adc_cnt_xq $end
$var reg 1 d# fast_xq $end
$upscope $end
$scope module i2c_master_top1 $end
$var wire 1 e# rd $end
$var wire 8 f# sr $end
$var wire 1 g# wr $end
$var wire 1 h# ack $end
$var wire 1 i# ien $end
$var wire 8 j# rxr $end
$var wire 1 k# sta $end
$var wire 1 l# sto $end
$var wire 1 m# done $end
$var wire 1 n# iack $end
$var wire 1 o# scl_pad_i $end
$var wire 1 p# scl_pad_o $end
$var wire 1 q# wb_wacc $end
$var wire 1 r# wb_we_i $end
$var wire 1 s# rst_i $end
$var wire 1 t# scl_padoen_o $end
$var wire 1 u# i2c_busy $end
$var wire 1 v# sda_padoen_o $end
$var wire 1 w# sda_pad_i $end
$var wire 1 x# sda_pad_o $end
$var wire 1 y# arst_i $end
$var wire 3 z# wb_adr_i $end
$var wire 1 {# wb_clk_i $end
$var wire 1 |# wb_cyc_i $end
$var wire 8 }# wb_dat_i $end
$var wire 1 ~# wb_rst_i $end
$var wire 1 !$ wb_stb_i $end
$var wire 1 "$ i2c_al $end
$var wire 1 #$ core_en $end
$var wire 1 $$ irxack $end
$var reg 1 %$ al $end
$var reg 8 &$ cr $end
$var reg 8 '$ ctr $end
$var reg 1 ($ tip $end
$var reg 8 )$ txr $end
$var reg 16 *$ prer $end
$var reg 1 +$ rxack $end
$var reg 1 ,$ wb_inta_o $end
$var reg 1 -$ irq_flag $end
$var reg 1 .$ wb_ack_o $end
$var reg 8 /$ wb_dat_o $end
$scope module byte_controller $end
$var wire 1 0$ go $end
$var wire 1 1$ clk $end
$var wire 8 2$ din $end
$var wire 1 3$ ena $end
$var wire 1 4$ rst $end
$var wire 8 5$ dout $end
$var wire 1 6$ read $end
$var wire 1 7$ stop $end
$var wire 1 8$ nReset $end
$var wire 1 9$ scl_i $end
$var wire 1 :$ scl_o $end
$var wire 1 ;$ sda_i $end
$var wire 1 <$ sda_o $end
$var wire 1 =$ start $end
$var wire 1 >$ write $end
$var wire 1 ?$ i2c_busy $end
$var wire 1 @$ core_ack $end
$var wire 1 A$ core_rxd $end
$var wire 1 B$ ack_in $end
$var wire 1 C$ cnt_done $end
$var wire 1 D$ scl_oen $end
$var wire 16 E$ clk_cnt $end
$var wire 1 F$ sda_oen $end
$var wire 1 G$ i2c_al $end
$var reg 1 H$ ld $end
$var reg 8 I$ sr $end
$var reg 3 J$ dcnt $end
$var reg 1 K$ shift $end
$var reg 5 L$ c_state $end
$var reg 4 M$ core_cmd $end
$var reg 1 N$ core_txd $end
$var reg 1 O$ cmd_ack $end
$var reg 1 P$ ack_out $end
$scope module bit_controller $end
$var wire 1 Q$ clk $end
$var wire 4 R$ cmd $end
$var wire 1 S$ din $end
$var wire 1 T$ ena $end
$var wire 1 U$ rst $end
$var wire 1 V$ nReset $end
$var wire 1 W$ scl_i $end
$var wire 1 X$ scl_o $end
$var wire 1 Y$ sda_i $end
$var wire 1 Z$ sda_o $end
$var wire 1 [$ scl_sync $end
$var wire 16 \$ clk_cnt $end
$var reg 1 ]$ al $end
$var reg 16 ^$ cnt $end
$var reg 2 _$ cSCL $end
$var reg 2 `$ cSDA $end
$var reg 1 a$ busy $end
$var reg 1 b$ dSCL $end
$var reg 1 c$ dSDA $end
$var reg 1 d$ dout $end
$var reg 3 e$ fSCL $end
$var reg 3 f$ fSDA $end
$var reg 1 g$ sSCL $end
$var reg 1 h$ sSDA $end
$var reg 1 i$ dscl_oen $end
$var reg 18 j$ c_state $end
$var reg 1 k$ cmd_stop $end
$var reg 14 l$ filter_cnt $end
$var reg 1 m$ sto_condition $end
$var reg 1 n$ clk_en $end
$var reg 1 o$ scl_oen $end
$var reg 1 p$ sda_chk $end
$var reg 1 q$ sda_oen $end
$var reg 1 r$ cmd_ack $end
$var reg 1 s$ slave_wait $end
$var reg 1 t$ sta_condition $end
$upscope $end
$upscope $end
$upscope $end
$scope module ni_intf1 $end
$var wire 1 u$ ale $end
$var wire 1 v$ clk $end
$var wire 8 w$ addr $end
$var wire 1 x$ set_thrshdac $end
$var wire 1 y$ rst_n $end
$var wire 1 z$ select_w $end
$var wire 1 {$ mod_sel $end
$var wire 1 |$ set_CR $end
$var wire 1 }$ set_SR $end
$var wire 1 ~$ set_gain $end
$var wire 1 !% set_hven $end
$var wire 1 "% set_stat $end
$var wire 1 #% set_adcmux $end
$var wire 1 $% set_chanen $end
$var wire 1 %% decode_w $end
$var wire 1 &% set_adc_cnvrt $end
$var wire 1 '% set_pre_low $end
$var wire 2 (% byte_cnt_d $end
$var wire 1 )% set_pre_hi $end
$var wire 1 *% set_CTL $end
$var wire 1 +% set_HT1 $end
$var wire 1 ,% set_HT2 $end
$var wire 1 -% set_HT3 $end
$var wire 1 .% set_TXR $end
$var wire 1 /% set_hvdac $end
$var wire 1 0% set_biasdac $end
$var reg 8 1% dout $end
$var reg 8 2% baddr $end
$var reg 6 3% saddr $end
$var reg 6 4% sel_addr $end
$var reg 1 5% mod_sel_dly1 $end
$var reg 2 6% byte_cnt $end
$upscope $end
$upscope $end
$upscope $end
$enddefinitions $end
#0
$dumpvars
bx 6%
x5%
b0 4%
bx 3%
b0 2%
bx 1%
00%
0/%
0.%
0-%
0,%
0+%
0*%
0)%
bx (%
0'%
0&%
x%%
0$%
0#%
0"%
x!%
0~$
0}$
0|$
x{$
xz$
0y$
0x$
b0 w$
0v$
xu$
0t$
0s$
0r$
1q$
0p$
1o$
1n$
0m$
b0 l$
0k$
b0 j$
xi$
1h$
1g$
b111 f$
b111 e$
xd$
1c$
1b$
0a$
b0 `$
b0 _$
b0 ^$
0]$
b1111111111111111 \$
0[$
0Z$
1Y$
0X$
1W$
0V$
1U$
0T$
0S$
b0 R$
0Q$
0P$
0O$
0N$
b0 M$
b0 L$
0K$
b0 J$
b0 I$
0H$
0G$
1F$
b1111111111111111 E$
1D$
1C$
0B$
xA$
0@$
0?$
0>$
0=$
0<$
1;$
0:$
19$
08$
07$
06$
b0 5$
14$
03$
b0 2$
01$
00$
bx /$
x.$
0-$
0,$
0+$
b1111111111111111 *$
b0 )$
0($
b0 '$
b0 &$
0%$
0$$
0#$
0"$
0!$
1~#
b0 }#
0|#
0{#
b0 z#
0y#
0x#
1w#
1v#
0u#
1t#
0s#
0r#
0q#
0p#
1o#
0n#
0m#
0l#
0k#
b0 j#
0i#
0h#
0g#
b0 f#
0e#
0d#
bx c#
1b#
b0 a#
0`#
bx _#
b1 ^#
bx ]#
0\#
0[#
0Z#
1Y#
0X#
b0 W#
1V#
1U#
0T#
0S#
b0 R#
0Q#
0P#
bx O#
xN#
0M#
0L#
0K#
xJ#
xI#
1H#
xG#
1F#
0E#
xD#
0C#
1B#
0A#
0@#
b0 ?#
b0 >#
bx =#
bx <#
0;#
bx :#
b0x 9#
b0xxxx 8#
07#
bx 6#
x5#
04#
x3#
bx 2#
01#
bx 0#
b0 /#
b0 .#
b0 -#
0,#
0+#
bx *#
0)#
0(#
b0 '#
bx &#
0%#
b0 $#
b0 ##
1"#
bx !#
0~"
0}"
0|"
0{"
0z"
0y"
bx x"
0w"
0v"
0u"
b0 t"
bx s"
0r"
bx q"
bx p"
bx o"
0n"
0m"
0l"
1k"
0j"
0i"
0h"
bx g"
0f"
1e"
1d"
1c"
0b"
0a"
0`"
0_"
0^"
0]"
x\"
bx ["
bx Z"
0Y"
0X"
bx W"
bx V"
xU"
0T"
bx S"
0R"
b0 Q"
0P"
b0 O"
xN"
xM"
xL"
xK"
xJ"
xI"
b100 H"
xG"
0F"
bx E"
bx D"
bx C"
0B"
bx A"
bx @"
0?"
0>"
0="
bx <"
1;"
0:"
bx 9"
08"
bx 7"
06"
05"
04"
03"
02"
01"
b10 0"
0/"
0."
0-"
x,"
bx +"
x*"
x)"
b100xxxxxxxx ("
1'"
1&"
0%"
bx $"
1#"
x""
0!"
0~
0}
x|
0{
1z
0y
1x
0w
0v
0u
0t
1s
b100xxxxxxxx r
b0 q
b0 p
b0 o
b0 n
0m
0l
1k
bx j
0i
0h
0g
0f
bx e
bx d
0c
1b
1a
0`
0_
0^
1]
bx \
bx [
bx Z
bx Y
b0 X
b0 W
0V
1U
bx T
bx S
0R
xQ
0P
0O
bx N
0M
b0 L
1K
0J
bx I
0H
xG
xF
0E
b1101110110001101 D
b10 C
xB
bx A
0@
0?
0>
0=
0<
b0 ;
0:
bx 9
x8
bx 7
16
15
bx 4
z3
12
z1
00
0/
1.
x-
0,
0+
1*
0)
0(
1'
bx &
0%
x$
0#
1"
1!
$end
#30
b10011111111 ("
b0 O#
b10011111111 r
1i$
b11111111 +"
b11111111 /$
0Q
0*"
0.$
bx j
bx Z"
bx 0#
b0 8#
b1111111111111111 4
b1111111111111111 7"
b1111111111111111 9"
b1111111111111111 ["
b1111111111111111 <#
b0 d
b0 _#
b0 c#
b1 ]#
0J"
05#
b0 9#
0K"
0\"
0u$
0L"
1J#
1^
1>"
1T"
11#
1@#
1E#
1M#
1{#
11$
1Q$
1v$
1="
1>
1B
1,"
1N#
1=
1M
1!"
#60
0=
0M
0!"
#90
0="
0>
1=
1M
1!"
#120
0=
0M
0!"
#150
0N"
0^
0>"
0T"
01#
0@#
0E#
0M#
0{#
01$
0Q$
0v$
1="
1>
1=
1M
1!"
#180
0=
0M
0!"
#200
b0 9
b0 I
#210
0="
0>
1=
1M
1!"
#240
0=
0M
0!"
#270
0""
0!%
bz &
bz N
0%%
0z$
bx j
bx Z"
bx 0#
b0 S"
b0 W"
0G"
0{$
1D#
1G#
1I#
1^
1>"
1T"
11#
1@#
1E#
1M#
1{#
11$
1Q$
1v$
1="
1>
1=
1M
1!"
#300
0=
0M
0!"
#330
0="
0>
1=
1M
1!"
#360
0=
0M
0!"
#390
0M"
0^
0>"
0T"
01#
0@#
0E#
0M#
0{#
01$
0Q$
0v$
1="
1>
1=
1M
1!"
#420
0=
0M
0!"
#450
0="
0>
1=
1M
1!"
#480
0=
0M
0!"
#510
b0 j
b0 Z"
b0 0#
05%
1^
1>"
1T"
11#
1@#
1E#
1M#
1{#
11$
1Q$
1v$
1="
1>
1=
1M
1!"
#540
0=
0M
0!"
#570
0="
0>
1=
1M
1!"
#600
0=
0M
0!"
#630
0^
0>"
0T"
01#
0@#
0E#
0M#
0{#
01$
0Q$
0v$
1="
1>
1=
1M
1!"
#660
0=
0M
0!"
#690
0="
0>
1=
1M
1!"
#700
b10000000000 9
b10000000000 I
#720
0=
0M
0!"
#750
b10000000000 S"
b10000000000 W"
1^
1>"
1T"
11#
1@#
1E#
1M#
1{#
11$
1Q$
1v$
1="
1>
1=
1M
1!"
#780
0=
0M
0!"
#810
0="
0>
1=
1M
1!"
#840
0=
0M
0!"
#870
0^
0>"
0T"
01#
0@#
0E#
0M#
0{#
01$
0Q$
0v$
1="
1>
1=
1M
1!"
#900
0=
0M
0!"
#930
0="
0>
1=
1M
1!"
#960
0=
0M
0!"
#990
b10000000000 j
b10000000000 Z"
b10000000000 0#
1^
1>"
1T"
11#
1@#
1E#
1M#
1{#
11$
1Q$
1v$
1="
1>
1=
1M
1!"
#1020
0=
0M
0!"
#1050
0="
0>
1=
1M
1!"
#1080
0=
0M
0!"
#1110
0^
0>"
0T"
01#
0@#
0E#
0M#
0{#
01$
0Q$
0v$
1="
1>
1=
1M
1!"
#1140
0=
0M
0!"
#1170
0="
0>
1=
1M
1!"
#1200
0=
0M
0!"
b0 9
b0 I
#1230
b10000000000 j
b10000000000 Z"
b10000000000 0#
b0 S"
b0 W"
1^
1>"
1T"
11#
1@#
1E#
1M#
1{#
11$
1Q$
1v$
1="
1>
1=
1M
1!"
#1260
0=
0M
0!"
#1290
0="
0>
1=
1M
1!"
#1320
0=
0M
0!"
#1350
0^
0>"
0T"
01#
0@#
0E#
0M#
0{#
01$
0Q$
0v$
1="
1>
1=
1M
1!"
#1380
0=
0M
0!"
#1410
0="
0>
1=
1M
1!"
#1440
0=
0M
0!"
#1470
b0 j
b0 Z"
b0 0#
1^
1>"
1T"
11#
1@#
1E#
1M#
1{#
11$
1Q$
1v$
1="
1>
1=
1M
1!"
#1500
0=
0M
0!"
#1530
0="
0>
1=
1M
1!"
#1560
0=
0M
0!"
#1590
0^
0>"
0T"
01#
0@#
0E#
0M#
0{#
01$
0Q$
0v$
1="
1>
1=
1M
1!"
#1620
0=
0M
0!"
#1650
0="
0>
1=
1M
1!"
#1680
0=
0M
0!"
#1700
0B#
0H#
1s#
18$
1V$
1?
1%"
1A#
1y#
#1710
0J#
b1111111111111111 ^$
1^
1>"
1T"
11#
1@#
1E#
1M#
1{#
11$
1Q$
1v$
1="
1>
1=
1M
1!"
#1740
0=
0M
0!"
#1770
0="
0>
1=
1M
1!"
#1800
0=
0M
0!"
#1830
0^
0>"
0T"
01#
0@#
0E#
0M#
0{#
01$
0Q$
0v$
1="
1>
1=
1M
1!"
#1860
0=
0M
0!"
#1890
0="
0>
1=
1M
1!"
#1900
08
0G
#1920
0=
0M
0!"
#1950
0~#
04$
0U$
1f
1X"
1u"
1(#
17#
1C#
1L#
1y$
0D#
0G#
0I#
1^
1>"
1T"
11#
1@#
1E#
1M#
1{#
11$
1Q$
1v$
1="
1>
1=
1M
1!"
#1980
0=
0M
0!"
#2010
0="
0>
1=
1M
1!"
#2040
0=
0M
0!"
#2070
1F"
1b"
1}"
0^
0>"
0T"
01#
0@#
0E#
0M#
0{#
01$
0Q$
0v$
1="
1>
1=
1M
1!"
#2100
0=
0M
0!"
#2130
0="
0>
1=
1M
1!"
#2160
0=
0M
0!"
#2190
b110 f$
b110 e$
b1 `$
b1 _$
1^
1>"
1T"
11#
1@#
1E#
1M#
1{#
11$
1Q$
1v$
1="
1>
1=
1M
1!"
#2220
0=
0M
0!"
#2250
0="
0>
1=
1M
1!"
#2280
0=
0M
0!"
#2310
0F"
0b"
0}"
0^
0>"
0T"
01#
0@#
0E#
0M#
0{#
01$
0Q$
0v$
1="
1>
1=
1M
1!"
#2340
0=
0M
0!"
#2370
0="
0>
1=
1M
1!"
#2400
1$
1F
1|
0=
0M
0!"
b10 A
b10 Z
#2430
b100 f$
b100 e$
b11 `$
b11 _$
1^
1>"
1T"
11#
1@#
1E#
1M#
1{#
11$
1Q$
1v$
1="
1>
1=
1M
1!"
#2460
0=
0M
0!"
#2490
0="
0>
1=
1M
1!"
#2520
0=
0M
0!"
#2550
1F"
1b"
1}"
0^
0>"
0T"
01#
0@#
0E#
0M#
0{#
01$
0Q$
0v$
1="
1>
1=
1M
1!"
#2580
0=
0M
0!"
#2610
0="
0>
1=
1M
1!"
#2640
0=
0M
0!"
#2670
1[$
0h$
0g$
b1 f$
b1 e$
1^
1>"
1T"
11#
1@#
1E#
1M#
1{#
11$
1Q$
1v$
1="
1>
1=
1M
1!"
#2700
0=
0M
0!"
#2730
0="
0>
1=
1M
1!"
#2760
0=
0M
0!"
#2790
0F"
0b"
0}"
0^
0>"
0T"
01#
0@#
0E#
0M#
0{#
01$
0Q$
0v$
1="
1>
1=
1M
1!"
#2820
0=
0M
0!"
#2850
0="
0>
1=
1M
1!"
#2880
0=
0M
0!"
#2910
0[$
0c$
0b$
b11 f$
b11 e$
1^
1>"
1T"
11#
1@#
1E#
1M#
1{#
11$
1Q$
1v$
1="
1>
1=
1M
1!"
#2940
0=
0M
0!"
#2970
0="
0>
1=
1M
1!"
#3000
0=
0M
0!"
#3030
1F"
1b"
1}"
0^
0>"
0T"
01#
0@#
0E#
0M#
0{#
01$
0Q$
0v$
1="
1>
1=
1M
1!"
#3060
0=
0M
0!"
#3090
0="
0>
1=
1M
1!"
#3120
0=
0M
0!"
#3150
1h$
1g$
b111 f$
b111 e$
1^
1>"
1T"
11#
1@#
1E#
1M#
1{#
11$
1Q$
1v$
1="
1>
1=
1M
1!"
#3180
0=
0M
0!"
#3210
0="
0>
1=
1M
1!"
#3240
0=
0M
0!"
#3270
0F"
0b"
0}"
0^
0>"
0T"
01#
0@#
0E#
0M#
0{#
01$
0Q$
0v$
1="
1>
1=
1M
1!"
#3300
0=
0M
0!"
#3330
0="
0>
1=
1M
1!"
#3360
0=
0M
0!"
#3390
1A$
1d$
1m$
1c$
1b$
1^
1>"
1T"
11#
1@#
1E#
1M#
1{#
11$
1Q$
1v$
1="
1>
1=
1M
1!"
#3400
b1000000 ;
b1000000 L
b1000000 w$
#3420
0=
0M
0!"
#3450
0="
0>
1=
1M
1!"
#3480
0=
0M
0!"
#3510
1F"
1b"
1}"
0^
0>"
0T"
01#
0@#
0E#
0M#
0{#
01$
0Q$
0v$
1="
1>
1=
1M
1!"
#3540
0=
0M
0!"
#3570
0="
0>
1=
1M
1!"
#3600
0=
0M
0!"
#3630
0m$
1^
1>"
1T"
11#
1@#
1E#
1M#
1{#
11$
1Q$
1v$
1="
1>
1=
1M
1!"
#3660
0=
0M
0!"
#3690
0="
0>
1=
1M
1!"
#3720
0=
0M
0!"
#3750
0F"
0b"
0}"
0^
0>"
0T"
01#
0@#
0E#
0M#
0{#
01$
0Q$
0v$
1="
1>
1=
1M
1!"
#3780
0=
0M
0!"
#3810
0="
0>
1=
1M
1!"
#3840
0=
0M
0!"
#3870
1^
1>"
1T"
11#
1@#
1E#
1M#
1{#
11$
1Q$
1v$
1="
1>
1=
1M
1!"
#3900
0=
0M
0!"
1:
1J
#3930
0="
0>
1=
1M
1!"
#3960
0=
0M
0!"
#3990
1F"
1b"
1}"
0^
0>"
0T"
01#
0@#
0E#
0M#
0{#
01$
0Q$
0v$
1="
1>
1=
1M
1!"
#4020
0=
0M
0!"
#4050
0="
0>
1=
1M
1!"
#4080
0=
0M
0!"
#4110
b0 (%
1K"
1\"
1u$
1^
1>"
1T"
11#
1@#
1E#
1M#
1{#
11$
1Q$
1v$
1="
1>
1=
1M
1!"
#4140
0=
0M
0!"
#4170
0="
0>
1=
1M
1!"
#4200
0=
0M
0!"
#4230
0F"
0b"
0}"
0^
0>"
0T"
01#
0@#
0E#
0M#
0{#
01$
0Q$
0v$
1="
1>
1=
1M
1!"
#4260
0=
0M
0!"
#4290
0="
0>
1=
1M
1!"
#4320
0=
0M
0!"
#4350
b0 e
b0 6%
1^
1>"
1T"
11#
1@#
1E#
1M#
1{#
11$
1Q$
1v$
1="
1>
1=
1M
1!"
#4380
0=
0M
0!"
#4400
18
1G
#4410
0="
0>
1=
1M
1!"
#4440
0=
0M
0!"
#4470
1F"
1b"
1}"
0^
0>"
0T"
01#
0@#
0E#
0M#
0{#
01$
0Q$
0v$
1="
1>
1=
1M
1!"
#4500
0=
0M
0!"
#4530
0="
0>
1=
1M
1!"
#4560
0=
0M
0!"
#4590
1L"
1^
1>"
1T"
11#
1@#
1E#
1M#
1{#
11$
1Q$
1v$
1="
1>
1=
1M
1!"
#4620
0=
0M
0!"
#4650
0="
0>
1=
1M
1!"
#4680
0=
0M
0!"
#4710
0F"
0b"
0}"
0^
0>"
0T"
01#
0@#
0E#
0M#
0{#
01$
0Q$
0v$
1="
1>
1=
1M
1!"
#4740
0=
0M
0!"
#4770
0="
0>
1=
1M
1!"
#4800
0=
0M
0!"
#4830
b10011111111 &
b10011111111 N
1%%
1G"
1{$
1^
1>"
1T"
11#
1@#
1E#
1M#
1{#
11$
1Q$
1v$
1="
1>
1=
1M
1!"
#4860
0=
0M
0!"
#4890
0="
0>
1=
1M
1!"
#4920
0=
0M
0!"
#4950
b10000 4%
b1000000 2%
1F"
1b"
1}"
0^
0>"
0T"
01#
0@#
0E#
0M#
0{#
01$
0Q$
0v$
1="
1>
1=
1M
1!"
#4980
0=
0M
0!"
#5010
0="
0>
1=
1M
1!"
#5040
0=
0M
0!"
#5070
0%%
1z$
15%
1^
1>"
1T"
11#
1@#
1E#
1M#
1{#
11$
1Q$
1v$
1="
1>
1=
1M
1!"
